{
    "match":{
        "idHome":"",
        "idAway":"",
        "idChampionship":"",
        "cotes":{
            "home":2,
            "away":3.2,
            "draw":1.1
        },
        "score":{
            "home":0,
            "away":1
        },
        "date":"Wed May 19 2021 19:57:30 GMT+0300 (East Africa Time)",
        "pitch":"Santiago Bernabeu"
    }
}